%YAML 1.1
%TAG !u! tag:unity3d.com,2011:
--- !u!114 &11400000
MonoBehaviour:
  m_ObjectHideFlags: 0
  m_CorrespondingSourceObject: {fileID: 0}
  m_PrefabInstance: {fileID: 0}
  m_PrefabAsset: {fileID: 0}
  m_GameObject: {fileID: 0}
  m_Enabled: 1
  m_EditorHideFlags: 0
  m_Script: {fileID: 11500000, guid: b3ef9dc842d37934488cc0ad000e81cc, type: 3}
  m_Name: Osbourne
  m_EditorClassIdentifier: 
  title: Picking bones
  number: 1004
  originator: The Charitable Gentleman
  tasks:
  - completion: 0
    status: 4
    text: Find the wreck.
    optional: 0
    rewards: []
  - completion: 0
    status: 4
    text: Retrieve the contents.
    optional: 0
    rewards: []
  - completion: 0
    status: 4
    text: Learn what happened to The Osbourne.
    optional: 1
    rewards:
    - invItem: 1
      quantity: 10
      immaterial: 0
      immaterialText: 
  - completion: 0
    status: 1
    text: Return the goods to the Charitable Gentleman.
    optional: 0
    rewards: []
  rewards:
  - invItem: 1
    quantity: 60
    immaterial: 0
    immaterialText: 
  - invItem: 2
    quantity: 1
    immaterial: 0
    immaterialText: 
