%YAML 1.1
%TAG !u! tag:unity3d.com,2011:
--- !u!114 &-1042653603022407492
MonoBehaviour:
  m_ObjectHideFlags: 0
  m_CorrespondingSourceObject: {fileID: 0}
  m_PrefabInstance: {fileID: 0}
  m_PrefabAsset: {fileID: 0}
  m_GameObject: {fileID: 0}
  m_Enabled: 1
  m_EditorHideFlags: 0
  m_Script: {fileID: 11500000, guid: fd9347995b74040468c5f6290caeba06, type: 3}
  m_Name: 418f6fe5-30a1-48f8-8f91-521e580b6e22
  m_EditorClassIdentifier: 
  isPlayerSpeaking: 0
  speaker: Hexxon Mobilium
  text: 'The Mobillium station managed by Hexxon adheres to highest purity standards
    with customer satisfaction held as top priority. Environmental impact as bottom
    priority. This doesn''t matter much, as there isn''t much environment left to
    impact.<br><br>Three employees are sitting in the adjoining building. One is
    wrapped in a dust suit ready to go out right after he finishes his meal. He doesn''t
    seem in a hurry.  Obese woman in greasy pigtails is lecturing the third one about
    something, pointing at store shelves. '
  children:
  - 9c3e7d77-4cea-41db-bf86-d674e89bff79
  enablees: []
  disablees: []
  rect:
    serializedVersion: 2
    x: 149
    y: 496
    width: 200
    height: 100
  OnEnterAction: 
  OnExitAction: 
  condition:
    and: []
  SingleUse: 0
  Enabled: 1
  skillTest:
    skillNumber: 0
    chance: 0
    absolute: 0
--- !u!114 &11400000
MonoBehaviour:
  m_ObjectHideFlags: 0
  m_CorrespondingSourceObject: {fileID: 0}
  m_PrefabInstance: {fileID: 0}
  m_PrefabAsset: {fileID: 0}
  m_GameObject: {fileID: 0}
  m_Enabled: 1
  m_EditorHideFlags: 0
  m_Script: {fileID: 11500000, guid: b1c0dccbbb18fea46a94ab1c539c00c9, type: 3}
  m_Name: Fuel_Whedons
  m_EditorClassIdentifier: 
  nodes:
  - {fileID: -1042653603022407492}
  - {fileID: 8323872428241663423}
  speaker: 
--- !u!114 &8323872428241663423
MonoBehaviour:
  m_ObjectHideFlags: 0
  m_CorrespondingSourceObject: {fileID: 0}
  m_PrefabInstance: {fileID: 0}
  m_PrefabAsset: {fileID: 0}
  m_GameObject: {fileID: 0}
  m_Enabled: 1
  m_EditorHideFlags: 0
  m_Script: {fileID: 11500000, guid: fd9347995b74040468c5f6290caeba06, type: 3}
  m_Name: 9c3e7d77-4cea-41db-bf86-d674e89bff79
  m_EditorClassIdentifier: 
  isPlayerSpeaking: 0
  speaker: Hexxon Mobilium
  text: Having parked your vehicle, you are ready to pour mobillium into your tanks.
  children: []
  enablees: []
  disablees: []
  rect:
    serializedVersion: 2
    x: 399
    y: 496
    width: 200
    height: 100
  OnEnterAction: 
  OnExitAction: 
  condition:
    and: []
  SingleUse: 0
  Enabled: 1
  skillTest:
    skillNumber: 0
    chance: 0
    absolute: 0
