%YAML 1.1
%TAG !u! tag:unity3d.com,2011:
--- !u!114 &-5259242762364979724
MonoBehaviour:
  m_ObjectHideFlags: 0
  m_CorrespondingSourceObject: {fileID: 0}
  m_PrefabInstance: {fileID: 0}
  m_PrefabAsset: {fileID: 0}
  m_GameObject: {fileID: 0}
  m_Enabled: 1
  m_EditorHideFlags: 0
  m_Script: {fileID: 11500000, guid: fd9347995b74040468c5f6290caeba06, type: 3}
  m_Name: cdc182d8-2bd9-4bc8-af64-8642deb13218
  m_EditorClassIdentifier: 
  isPlayerSpeaking: 1
  speaker: 
  text: <color=#E5D9A5FF><color=#E5D9A5FF>Welcome
  children:
  - b469b332-0767-40cf-858f-df35b1c5721a
  rect:
    serializedVersion: 2
    x: 492
    y: 213
    width: 200
    height: 100
  OnEnterAction: 
  OnExitAction: 
  condition:
    and: []
  SingleUse: 0
  skillTest:
    skillNumber: 0
    chance: 0
    absolute: 0
--- !u!114 &-4317285160553184995
MonoBehaviour:
  m_ObjectHideFlags: 0
  m_CorrespondingSourceObject: {fileID: 0}
  m_PrefabInstance: {fileID: 0}
  m_PrefabAsset: {fileID: 0}
  m_GameObject: {fileID: 0}
  m_Enabled: 1
  m_EditorHideFlags: 0
  m_Script: {fileID: 11500000, guid: fd9347995b74040468c5f6290caeba06, type: 3}
  m_Name: 7ad81fba-0e0e-4305-a857-14c878d3830a
  m_EditorClassIdentifier: 
  isPlayerSpeaking: 1
  speaker: 
  text: <color=#E5D9A5FF><color=#E5D9A5FF>Oh no!
  children: []
  rect:
    serializedVersion: 2
    x: 492
    y: 413
    width: 200
    height: 100
  OnEnterAction: 
  OnExitAction: 
  condition:
    and: []
  SingleUse: 0
  skillTest:
    skillNumber: 0
    chance: 0
    absolute: 0
--- !u!114 &11400000
MonoBehaviour:
  m_ObjectHideFlags: 0
  m_CorrespondingSourceObject: {fileID: 0}
  m_PrefabInstance: {fileID: 0}
  m_PrefabAsset: {fileID: 0}
  m_GameObject: {fileID: 0}
  m_Enabled: 1
  m_EditorHideFlags: 0
  m_Script: {fileID: 11500000, guid: b1c0dccbbb18fea46a94ab1c539c00c9, type: 3}
  m_Name: kittekeeekns
  m_EditorClassIdentifier: 
  nodes:
  - {fileID: 4548685582442269074}
  - {fileID: -5259242762364979724}
  - {fileID: 2711659067976395554}
  - {fileID: -4317285160553184995}
  - {fileID: 4486644817202990409}
  speaker: 
--- !u!114 &2711659067976395554
MonoBehaviour:
  m_ObjectHideFlags: 0
  m_CorrespondingSourceObject: {fileID: 0}
  m_PrefabInstance: {fileID: 0}
  m_PrefabAsset: {fileID: 0}
  m_GameObject: {fileID: 0}
  m_Enabled: 1
  m_EditorHideFlags: 0
  m_Script: {fileID: 11500000, guid: fd9347995b74040468c5f6290caeba06, type: 3}
  m_Name: b469b332-0767-40cf-858f-df35b1c5721a
  m_EditorClassIdentifier: 
  isPlayerSpeaking: 0
  speaker: 
  text: <color=#E5D9A5FF><color=#E5D9A5FF>How are you ,kind creature?
  children: []
  rect:
    serializedVersion: 2
    x: 717
    y: 210
    width: 200
    height: 100
  OnEnterAction: 
  OnExitAction: 
  condition:
    and: []
  SingleUse: 0
  skillTest:
    skillNumber: 0
    chance: 0
    absolute: 0
--- !u!114 &4486644817202990409
MonoBehaviour:
  m_ObjectHideFlags: 0
  m_CorrespondingSourceObject: {fileID: 0}
  m_PrefabInstance: {fileID: 0}
  m_PrefabAsset: {fileID: 0}
  m_GameObject: {fileID: 0}
  m_Enabled: 1
  m_EditorHideFlags: 0
  m_Script: {fileID: 11500000, guid: fd9347995b74040468c5f6290caeba06, type: 3}
  m_Name: d198263f-fde1-461f-98b9-f23225679268
  m_EditorClassIdentifier: 
  isPlayerSpeaking: 1
  speaker: 
  text: <color=#E5D9A5FF><color=#E5D9A5FF>This highly acclaimed series was over 200%
    funded on Kickstarter, and is designed for intermediate users of Unity. We recommend
    you take at least the first half of our Complete Unity Developer 2D or 3D, or
    equivalent, as a prerequisite. This highly acclaimed series was over 200% funded
    on Kickstarter, and is designed for intermediate users of Unity. We recommend
    you take at least the first half of our Complete Unity Developer 2D or 3D, or
    equivalent, as a prerequisite.
  children: []
  rect:
    serializedVersion: 2
    x: 495
    y: 559
    width: 200
    height: 100
  OnEnterAction: 
  OnExitAction: 
  condition:
    and: []
  SingleUse: 0
  skillTest:
    skillNumber: 0
    chance: 0
    absolute: 0
--- !u!114 &4548685582442269074
MonoBehaviour:
  m_ObjectHideFlags: 0
  m_CorrespondingSourceObject: {fileID: 0}
  m_PrefabInstance: {fileID: 0}
  m_PrefabAsset: {fileID: 0}
  m_GameObject: {fileID: 0}
  m_Enabled: 1
  m_EditorHideFlags: 0
  m_Script: {fileID: 11500000, guid: fd9347995b74040468c5f6290caeba06, type: 3}
  m_Name: 6e2019cb-38ba-4760-8b5f-df22e0d62453
  m_EditorClassIdentifier: 
  isPlayerSpeaking: 0
  speaker: 
  text: <color=#E5D9A5FF><color=#E5D9A5FF>Hi!
  children:
  - cdc182d8-2bd9-4bc8-af64-8642deb13218
  - 7ad81fba-0e0e-4305-a857-14c878d3830a
  - d198263f-fde1-461f-98b9-f23225679268
  rect:
    serializedVersion: 2
    x: 215
    y: 212
    width: 200
    height: 100
  OnEnterAction: 
  OnExitAction: 
  condition:
    and: []
  SingleUse: 0
  skillTest:
    skillNumber: 0
    chance: 0
    absolute: 0
