%YAML 1.1
%TAG !u! tag:unity3d.com,2011:
--- !u!114 &11400000
MonoBehaviour:
  m_ObjectHideFlags: 0
  m_CorrespondingSourceObject: {fileID: 0}
  m_PrefabInstance: {fileID: 0}
  m_PrefabAsset: {fileID: 0}
  m_GameObject: {fileID: 0}
  m_Enabled: 1
  m_EditorHideFlags: 0
  m_Script: {fileID: 11500000, guid: 754aa48c05845a144a821a8d13646fc5, type: 3}
  m_Name: Piercer
  m_EditorClassIdentifier: 
  itemName: Piercer
  pluralname: Piercers
  number: 3
  price: 30
  rarity: 1
  maxPerSlot: 64
  sprite: {fileID: 21300000, guid: a57003a64b7d22341a8abbd058f08e31, type: 3}
  description: Standard ammo, designed to pierce armour. Good against armoured targets
    or the soft and squishy ones, if you can hit them.
