%YAML 1.1
%TAG !u! tag:unity3d.com,2011:
--- !u!114 &11400000
MonoBehaviour:
  m_ObjectHideFlags: 0
  m_CorrespondingSourceObject: {fileID: 0}
  m_PrefabInstance: {fileID: 0}
  m_PrefabAsset: {fileID: 0}
  m_GameObject: {fileID: 0}
  m_Enabled: 1
  m_EditorHideFlags: 0
  m_Script: {fileID: 11500000, guid: 9c22045297c6fa6439edfceb76bf09c1, type: 3}
  m_Name: Osbourne
  m_EditorClassIdentifier: 
  inv:
  - id: 2
    quantity: 3
  - id: 11
    quantity: 5
  notBuying: 
