%YAML 1.1
%TAG !u! tag:unity3d.com,2011:
--- !u!114 &11400000
MonoBehaviour:
  m_ObjectHideFlags: 0
  m_CorrespondingSourceObject: {fileID: 0}
  m_PrefabInstance: {fileID: 0}
  m_PrefabAsset: {fileID: 0}
  m_GameObject: {fileID: 0}
  m_Enabled: 1
  m_EditorHideFlags: 0
  m_Script: {fileID: 11500000, guid: b1c0dccbbb18fea46a94ab1c539c00c9, type: 3}
  m_Name: Thomas enocounter first
  m_EditorClassIdentifier: 
  nodes:
  - {fileID: 565859927020137026}
  - {fileID: 3269153360450620266}
  - {fileID: 1621346005286025760}
  - {fileID: 2196991332933975391}
  - {fileID: 934304062884929481}
  - {fileID: 4920524410516108467}
  - {fileID: 2964400164848949719}
  speaker: 
--- !u!114 &565859927020137026
MonoBehaviour:
  m_ObjectHideFlags: 0
  m_CorrespondingSourceObject: {fileID: 0}
  m_PrefabInstance: {fileID: 0}
  m_PrefabAsset: {fileID: 0}
  m_GameObject: {fileID: 0}
  m_Enabled: 1
  m_EditorHideFlags: 0
  m_Script: {fileID: 11500000, guid: fd9347995b74040468c5f6290caeba06, type: 3}
  m_Name: 7be03dea-8eb1-43c8-99a0-4cc3e30bfabe
  m_EditorClassIdentifier: 
  isPlayerSpeaking: 0
  speaker: Thomas
  text: Hi! I'm Thomas!
  children:
  - 5549df4b-e42a-4a9e-ba33-130ccc08dd22
  enablees: []
  disablees: []
  rect:
    serializedVersion: 2
    x: 220
    y: 454
    width: 200
    height: 100
  OnEnterAction: 
  OnExitAction: 
  condition:
    and: []
  SingleUse: 0
  Enabled: 1
  skillTest:
    skillNumber: 0
    chance: 0
    absolute: 0
--- !u!114 &934304062884929481
MonoBehaviour:
  m_ObjectHideFlags: 0
  m_CorrespondingSourceObject: {fileID: 0}
  m_PrefabInstance: {fileID: 0}
  m_PrefabAsset: {fileID: 0}
  m_GameObject: {fileID: 0}
  m_Enabled: 1
  m_EditorHideFlags: 0
  m_Script: {fileID: 11500000, guid: fd9347995b74040468c5f6290caeba06, type: 3}
  m_Name: 2a3e7bf3-da13-4c8b-ba67-4f70e1caf0dc
  m_EditorClassIdentifier: 
  isPlayerSpeaking: 1
  speaker: 
  text: No.
  children:
  - af4942fb-893c-42c5-89d1-7e49530623c7
  enablees: []
  disablees: []
  rect:
    serializedVersion: 2
    x: 1220
    y: 453
    width: 200
    height: 100
  OnEnterAction: 
  OnExitAction: 
  condition:
    and: []
  SingleUse: 0
  Enabled: 1
  skillTest:
    skillNumber: 0
    chance: 0
    absolute: 0
--- !u!114 &1621346005286025760
MonoBehaviour:
  m_ObjectHideFlags: 0
  m_CorrespondingSourceObject: {fileID: 0}
  m_PrefabInstance: {fileID: 0}
  m_PrefabAsset: {fileID: 0}
  m_GameObject: {fileID: 0}
  m_Enabled: 1
  m_EditorHideFlags: 0
  m_Script: {fileID: 11500000, guid: fd9347995b74040468c5f6290caeba06, type: 3}
  m_Name: dea4312f-d6dc-4ed5-91f9-dc6dfe78497b
  m_EditorClassIdentifier: 
  isPlayerSpeaking: 1
  speaker: 
  text: Yes.
  children:
  - 5065e942-6189-43bc-8a11-048546f3836c
  enablees: []
  disablees: []
  rect:
    serializedVersion: 2
    x: 720
    y: 453
    width: 200
    height: 100
  OnEnterAction: 
  OnExitAction: 
  condition:
    and: []
  SingleUse: 0
  Enabled: 1
  skillTest:
    skillNumber: 0
    chance: 0
    absolute: 0
--- !u!114 &2196991332933975391
MonoBehaviour:
  m_ObjectHideFlags: 0
  m_CorrespondingSourceObject: {fileID: 0}
  m_PrefabInstance: {fileID: 0}
  m_PrefabAsset: {fileID: 0}
  m_GameObject: {fileID: 0}
  m_Enabled: 1
  m_EditorHideFlags: 0
  m_Script: {fileID: 11500000, guid: fd9347995b74040468c5f6290caeba06, type: 3}
  m_Name: 5065e942-6189-43bc-8a11-048546f3836c
  m_EditorClassIdentifier: 
  isPlayerSpeaking: 0
  speaker: Thomas
  text: Do you cause confusion and delay?
  children:
  - 2a3e7bf3-da13-4c8b-ba67-4f70e1caf0dc
  enablees: []
  disablees: []
  rect:
    serializedVersion: 2
    x: 970
    y: 453
    width: 200
    height: 100
  OnEnterAction: 
  OnExitAction: 
  condition:
    and: []
  SingleUse: 0
  Enabled: 1
  skillTest:
    skillNumber: 0
    chance: 0
    absolute: 0
--- !u!114 &2964400164848949719
MonoBehaviour:
  m_ObjectHideFlags: 0
  m_CorrespondingSourceObject: {fileID: 0}
  m_PrefabInstance: {fileID: 0}
  m_PrefabAsset: {fileID: 0}
  m_GameObject: {fileID: 0}
  m_Enabled: 1
  m_EditorHideFlags: 0
  m_Script: {fileID: 11500000, guid: fd9347995b74040468c5f6290caeba06, type: 3}
  m_Name: c4b985e3-76da-4469-8081-237e2a823e82
  m_EditorClassIdentifier: 
  isPlayerSpeaking: 1
  speaker: 
  text: <$endConversation>
  children: []
  enablees: []
  disablees: []
  rect:
    serializedVersion: 2
    x: 1720
    y: 453
    width: 200
    height: 100
  OnEnterAction: 
  OnExitAction: CloseDialogue
  condition:
    and: []
  SingleUse: 0
  Enabled: 1
  skillTest:
    skillNumber: 0
    chance: 0
    absolute: 0
--- !u!114 &3269153360450620266
MonoBehaviour:
  m_ObjectHideFlags: 0
  m_CorrespondingSourceObject: {fileID: 0}
  m_PrefabInstance: {fileID: 0}
  m_PrefabAsset: {fileID: 0}
  m_GameObject: {fileID: 0}
  m_Enabled: 1
  m_EditorHideFlags: 0
  m_Script: {fileID: 11500000, guid: fd9347995b74040468c5f6290caeba06, type: 3}
  m_Name: 5549df4b-e42a-4a9e-ba33-130ccc08dd22
  m_EditorClassIdentifier: 
  isPlayerSpeaking: 0
  speaker: Thomas
  text: Are you a useful engine?
  children:
  - dea4312f-d6dc-4ed5-91f9-dc6dfe78497b
  enablees: []
  disablees: []
  rect:
    serializedVersion: 2
    x: 470
    y: 453
    width: 200
    height: 100
  OnEnterAction: 
  OnExitAction: 
  condition:
    and: []
  SingleUse: 0
  Enabled: 1
  skillTest:
    skillNumber: 0
    chance: 0
    absolute: 0
--- !u!114 &4920524410516108467
MonoBehaviour:
  m_ObjectHideFlags: 0
  m_CorrespondingSourceObject: {fileID: 0}
  m_PrefabInstance: {fileID: 0}
  m_PrefabAsset: {fileID: 0}
  m_GameObject: {fileID: 0}
  m_Enabled: 1
  m_EditorHideFlags: 0
  m_Script: {fileID: 11500000, guid: fd9347995b74040468c5f6290caeba06, type: 3}
  m_Name: af4942fb-893c-42c5-89d1-7e49530623c7
  m_EditorClassIdentifier: 
  isPlayerSpeaking: 0
  speaker: Thomas
  text: Good.
  children:
  - c4b985e3-76da-4469-8081-237e2a823e82
  enablees: []
  disablees: []
  rect:
    serializedVersion: 2
    x: 1470
    y: 453
    width: 200
    height: 100
  OnEnterAction: 
  OnExitAction: 
  condition:
    and: []
  SingleUse: 0
  Enabled: 1
  skillTest:
    skillNumber: 0
    chance: 0
    absolute: 0
